[
  {
    "id": 1,
    "name": "ok",
    "secret": "sk-...ene3",
    "tracking": "Enabled",
    "created": "22 thg 8",
    "used": "31 thg 8",
    "premi": "All"
  },


  {
    "id": 2,
    "name": "Name",
    "secret": "sk-...ene54",
    "tracking": "Enabled",
    "created": "12 thg 8",
    "used": "17 thg 9",
    "premi": "All"
  }
]
